{"componentChunkName":"component---src-templates-index-jsx","path":"/","result":{"data":{"authors":{"edges":[{"node":{"uid":"jakob","name":"Jakob Kjaer","image":"/images/authors/Jakob.jpg","url":"https://sitbne.github.io/","bio":"Father of boys, SAP hacker, Agile fanboy"}},{"node":{"uid":"jorg","name":"Jorg Thuijls","image":"/images/authors/Jorg.jpg","url":"https://jorg.thuijls.net/","bio":"Developing SAP, front ends and back ends."}},{"node":{"uid":"katan","name":"Katan Patel","image":"/images/authors/Katan.jpg","url":"https://logicalstarconsulting.com/","bio":"Architect/Developer/Radix DLT Node Runner. Loves Coding, cooking, gaming, football, electronic music, MTB & fishing"}}]}},"pageContext":{"nodes":[{"node":{"frontmatter":{"title":"March 2024","tags":["BTP"],"cover":"/images/Brisbane-Logo-Page-Banner.png","date":"2023-03-04","category":"tech","author":"katan"},"fields":{"slug":"/march-2024"},"excerpt":null,"timeToRead":1}},{"node":{"frontmatter":{"title":"June 2023","tags":["BTP","Terraform","IaC","UI5","WDI5"],"cover":"/images/Brisbane-Logo-Page-Banner.png","date":"2023-03-02","category":"tech","author":"katan"},"fields":{"slug":"/june-2023"},"excerpt":"Well a lot has happened since we last got together.  We had a glorious line up tee'd up back in 2021, but covid hit and ended face to face…","timeToRead":2}},{"node":{"frontmatter":{"title":"February 2020","tags":["JavaScript","UI5","SAP Cloud","Node"],"cover":"/images/Brisbane-Logo-Page-Banner.png","date":"2020-02-19","category":"tech","author":"katan"},"fields":{"slug":"/february-2020"},"excerpt":"Following on from our last session, we listened to your feedback and we plan to go back to a more grass roots type of session.  We've…","timeToRead":1}},{"node":{"frontmatter":{"title":"November 2019","tags":["FLP","iOS","RPA","Robotic Process Automation"],"cover":"/images/Brisbane-Logo-Page-Banner.png","date":"2019-11-20","category":"tech","author":"katan"},"fields":{"slug":"/november-2019"},"excerpt":"Come join us on November 20th for another fantastic night. We are just working through some details around their talks and as soon as any…","timeToRead":1}},{"node":{"frontmatter":{"title":"June 2019","tags":["Fiori","Chatbots","CAI"],"cover":"/images/Brisbane-Logo-Page-Banner.png","date":"2019-06-27","category":"tech","author":"katan"},"fields":{"slug":"/june-2019"},"excerpt":"Sorry we've left you waiting so long for the latest session.  But to make it up to you we've lined up two fantastic speakers.  So come join…","timeToRead":1}}],"page":1,"pages":3,"total":11,"limit":5,"next":"/2"}},"staticQueryHashes":[],"slicesMap":{}}